Log by iNetTools - Best Network Diagnose Tools on iPhone and iPad.

Network: 192.168.1.0/24
Name: comhemDBE1E7
BSSID: A4:B1:E9:DB:E1:E7
Discovered: Jan 03, 2020 07:01 AM

IP Address: 192.168.1.1
MAC Address: 
Vendor: 
Node Online
First Seen: Jan 03, 2020 07:01 AM
Last Update: Jan 03, 2020 07:01 AM

IP Address: 192.168.1.100
MAC Address: 
Vendor: 
Node Online
First Seen: Jan 03, 2020 07:01 AM
Last Update: Jan 03, 2020 07:01 AM

IP Address: 192.168.1.253
MAC Address: 
Vendor: 
Node Online
First Seen: Jan 03, 2020 07:02 AM
Last Update: Jan 03, 2020 07:02 AM
