; <<>> DiG 9.9.5-9+deb8u16-Debian <<>> @8.8.8.8 100.94.126.179 AAAA -c IN
; (1 server found)
;; global options: +cmd
;; Got answer:
;; ->>HEADER<<- opcode: QUERY, status: NXDOMAIN, id: 12709
;; flags: qr rd ra ad; QUERY: 1, ANSWER: 0, AUTHORITY: 1, ADDITIONAL: 1

;; OPT PSEUDOSECTION:
; EDNS: version: 0, flags:; udp: 512
;; QUESTION SECTION:
;100.94.126.179.			IN	AAAA

;; AUTHORITY SECTION:
.			86395	IN	SOA	a.root-servers.net. nstld.verisign-grs.com. 2019082900 1800 900 604800 86400

;; Query time: 11 msec
;; SERVER: 8.8.8.8#53(8.8.8.8)
;; WHEN: Thu Aug 29 13:53:04 CEST 2019
;; MSG SIZE  rcvd: 118